ChiselProject/code/test_run_dir/riscv.dAluTest1728764234/dAlu.vcd
$version Generated by VerilatedVcd $end
$date Mon Jun 25 17:01:41 2018
 $end
$timescale 1ns $end

 $scope module TOP $end
  $var wire  1 # clock $end
  $var wire 16 * io_in_16bit_rs1 [15:0] $end
  $var wire 16 + io_in_16bit_rs2 [15:0] $end
  $var wire 32 , io_in_32bit_rs1 [31:0] $end
  $var wire 32 - io_in_32bit_rs2 [31:0] $end
  $var wire  8 & io_in_8bit1_rs1 [7:0] $end
  $var wire  8 ' io_in_8bit1_rs2 [7:0] $end
  $var wire  8 ( io_in_8bit2_rs1 [7:0] $end
  $var wire  8 ) io_in_8bit2_rs2 [7:0] $end
  $var wire  7 % io_opcode [6:0] $end
  $var wire 32 . io_out [31:0] $end
  $var wire  1 $ reset $end
  $scope module v $end
   $var wire  1 # clock $end
   $var wire 16 * io_in_16bit_rs1 [15:0] $end
   $var wire 16 + io_in_16bit_rs2 [15:0] $end
   $var wire 32 , io_in_32bit_rs1 [31:0] $end
   $var wire 32 - io_in_32bit_rs2 [31:0] $end
   $var wire  8 & io_in_8bit1_rs1 [7:0] $end
   $var wire  8 ' io_in_8bit1_rs2 [7:0] $end
   $var wire  8 ( io_in_8bit2_rs1 [7:0] $end
   $var wire  8 ) io_in_8bit2_rs2 [7:0] $end
   $var wire  7 % io_opcode [6:0] $end
   $var wire 32 . io_out [31:0] $end
   $var wire 16 1 out_16bit [15:0] $end
   $var wire 32 2 out_32bit [31:0] $end
   $var wire  8 / out_8bit1 [7:0] $end
   $var wire  8 0 out_8bit2 [7:0] $end
   $var wire  1 $ reset $end
  $upscope $end
 $upscope $end
$enddefinitions $end


#0
0#
1$
b0000000 %
b00000000 &
b00000000 '
b00000000 (
b00000000 )
b0000000000000000 *
b0000000000000000 +
b00000000000000000000000000000000 ,
b00000000000000000000000000000000 -
b00000000000000000000000000000000 .
b00000000 /
b00000000 0
b0000000000000000 1
b00000000000000000000000000000000 2
#1
1#
#2
0#
#3
1#
#4
0#
#5
1#
#6
0#
#7
1#
#8
0#
#9
1#
#10
0#
0$
b00000100 &
b00000100 '
b00000011 (
b00000011 )
b1111111100000000 *
b0000111100000000 +
b00000001000000000000000000000000 ,
b00000001000000000000000000000000 -
b00000010000011100000011000001000 .
b00001000 /
b00000110 0
b0000111000000000 1
b00000010000000000000000000000000 2
#11
1#
#12
0#
b0000001 %
b00000000000000000000000000000000 .
b00000000 /
b00000000 0
b0000000000000000 1
b00000000000000000000000000000000 2
#13
1#
#14
0#
b0000010 %
#15
1#
#16
0#
b0000011 %
b00000010000011100000011000001000 .
b00001000 /
b00000110 0
b0000111000000000 1
b00000010000000000000000000000000 2
#17
1#
#18
0#
b0000100 %
b00000000000000000000000000000000 .
b00000000 /
b00000000 0
b0000000000000000 1
b00000000000000000000000000000000 2
#19
1#
#20
0#
b0000101 %
#21
1#
#22
0#
b0000110 %
#23
1#
#24
0#
b0000111 %
#25
1#
#26
0#
b0001000 %
