ChiselProject/code/test_run_dir/riscv.decodeTest393658562/decode.vcd
$version Generated by VerilatedVcd $end
$date Mon Jun 25 12:43:02 2018
 $end
$timescale 1ns $end

 $scope module TOP $end
  $var wire  1 # clock $end
  $var wire  2 * io_ctrl_out [1:0] $end
  $var wire  7 % io_func [6:0] $end
  $var wire  7 ) io_opcode [6:0] $end
  $var wire  1 & io_xd $end
  $var wire  1 ' io_xs1 $end
  $var wire  1 ( io_xs2 $end
  $var wire  1 $ reset $end
  $scope module v $end
   $var wire  1 # clock $end
   $var wire  2 * io_ctrl_out [1:0] $end
   $var wire  7 % io_func [6:0] $end
   $var wire  7 ) io_opcode [6:0] $end
   $var wire  1 & io_xd $end
   $var wire  1 ' io_xs1 $end
   $var wire  1 ( io_xs2 $end
   $var wire  1 $ reset $end
  $upscope $end
 $upscope $end
$enddefinitions $end


#0
0#
1$
b0000000 %
0&
0'
0(
b0000000 )
b00 *
#1
1#
#2
0#
#3
1#
#4
0#
#5
1#
#6
0#
#7
1#
#8
0#
#9
1#
#10
0#
0$
1&
1'
1(
#11
1#
#12
0#
b0000001 %
b01 *
#13
1#
#14
0#
b0000010 %
#15
1#
#16
0#
b0000011 %
#17
1#
#18
0#
b0000100 %
#19
1#
#20
0#
b0000101 %
#21
1#
#22
0#
b0000110 %
#23
1#
#24
0#
b0000111 %
#25
1#
#26
0#
b0001000 %
#27
1#
#28
0#
b0001001 %
#29
1#
#30
0#
b0001010 %
#31
1#
#32
0#
b0001011 %
#33
1#
#34
0#
b0001100 %
#35
1#
#36
0#
b0001101 %
#37
1#
#38
0#
b0001110 %
#39
1#
#40
0#
b0001111 %
#41
1#
#42
0#
b0010000 %
b10 *
#43
1#
#44
0#
b0010001 %
#45
1#
#46
0#
b0010010 %
#47
1#
#48
0#
b0010011 %
#49
1#
#50
0#
b0010100 %
#51
1#
#52
0#
b0010101 %
#53
1#
#54
0#
b0010110 %
#55
1#
#56
0#
b0010111 %
#57
1#
#58
0#
b0011000 %
#59
1#
#60
0#
b0011001 %
#61
1#
#62
0#
b0011010 %
#63
1#
#64
0#
b0011011 %
#65
1#
#66
0#
b0011100 %
#67
1#
#68
0#
b0011101 %
#69
1#
#70
0#
b0011110 %
#71
1#
#72
0#
b0011111 %
#73
1#
#74
0#
b0100000 %
b11 *
#75
1#
#76
0#
b0100001 %
#77
1#
#78
0#
b0100010 %
#79
1#
#80
0#
b0100011 %
#81
1#
#82
0#
b0100100 %
#83
1#
#84
0#
b0100101 %
#85
1#
#86
0#
b0100110 %
#87
1#
#88
0#
b0100111 %
#89
1#
#90
0#
b0101000 %
#91
1#
#92
0#
b0101001 %
#93
1#
#94
0#
b0101010 %
#95
1#
#96
0#
b0101011 %
#97
1#
#98
0#
b0101100 %
#99
1#
#100
0#
b0101101 %
#101
1#
#102
0#
b0101110 %
#103
1#
#104
0#
b0101111 %
#105
1#
#106
0#
b0110000 %
b00 *
#107
1#
#108
0#
b0110001 %
