ChiselProject/code/test_run_dir/riscv.dspAluTest2144494297/dspAlu.vcd
$version Generated by VerilatedVcd $end
$date Tue Jun 26 17:31:53 2018
 $end
$timescale 1ns $end

 $scope module TOP $end
  $var wire  1 - clock $end
  $var wire 32 0 io_in_rs1 [31:0] $end
  $var wire 32 1 io_in_rs2 [31:0] $end
  $var wire  7 / io_opcode [6:0] $end
  $var wire 32 2 io_out [31:0] $end
  $var wire  1 . reset $end
  $scope module v $end
   $var wire  9 # add1 [8:0] $end
   $var wire  9 ( add1_r [8:0] $end
   $var wire 17 $ add2 [16:0] $end
   $var wire 17 ) add2_r [16:0] $end
   $var wire 25 % add3 [24:0] $end
   $var wire 25 * add3_r [24:0] $end
   $var wire 33 & add4 [32:0] $end
   $var wire 33 + add4_r [32:0] $end
   $var wire  1 - clock $end
   $var wire 32 0 io_in_rs1 [31:0] $end
   $var wire 32 1 io_in_rs2 [31:0] $end
   $var wire  7 / io_opcode [6:0] $end
   $var wire 32 2 io_out [31:0] $end
   $var wire  1 . reset $end
   $var wire  9 5 rs1_15d8 [8:0] $end
   $var wire  9 7 rs1_23d16 [8:0] $end
   $var wire  9 9 rs1_31d24 [8:0] $end
   $var wire  9 3 rs1_7d0 [8:0] $end
   $var wire  9 6 rs2_15d8 [8:0] $end
   $var wire  9 8 rs2_23d16 [8:0] $end
   $var wire  9 : rs2_31d24 [8:0] $end
   $var wire  9 4 rs2_7d0 [8:0] $end
  $upscope $end
 $upscope $end
$enddefinitions $end


#0
b000000000 #
b00000000000000000 $
b0000000000000000000000000 %
b000000000000000000000000000000000 &
b000000000 (
b00000000000000000 )
b0000000000000000000000000 *
b000000000000000000000000000000000 +
0-
1.
b0000000 /
b00000000000000000000000000000000 0
b00000000000000000000000000000000 1
b00000000000000000000000000000000 2
b000000000 3
b000000000 4
b000000000 5
b000000000 6
b000000000 7
b000000000 8
b000000000 9
b000000000 :
#1
1-
#2
0-
#3
1-
#4
0-
#5
1-
#6
0-
#7
1-
#8
0-
#9
1-
#10
b111111110 #
b10000000000000000 $
b0111111100000000000000000 %
b100000000000000000000000000000000 &
0-
0.
b10000000011111110000000111111111 0
b10000000011111111111111111111111 1
b00000000111111100000000011111110 2
b011111111 3
b011111111 4
b000000001 5
b011111111 6
b001111111 7
b001111111 8
b010000000 9
b010000000 :
#11
b111111110 (
b10000000000000000 )
b0111111100000000000000000 *
b100000000000000000000000000000000 +
1-
#12
0-
#13
1-
#14
0-
b0000001 /
#15
b0011111110000000000000000 *
b010000000000000000000000000000000 +
1-
b10000000011111110000000011111110 2
#16
0-
#17
1-
#18
0-
b0000010 /
b10000000011111111000000011111111 2
#19
b0111111100000000000000000 *
b100000000000000000000000000000000 +
1-
#20
0-
#21
1-
#22
0-
b0000011 /
b00000000111111100000000011111110 2
#23
1-
#24
0-
#25
1-
#26
0-
b0000100 /
#27
b011111111 (
b01111111100000000 )
b011111111000000000000000000000000 +
1-
b11111111111111101111111111111111 2
#28
0-
#29
1-
#30
0-
b0000101 /
b10000000011111111000000011111111 2
#31
b111111110 (
b10000000000000000 )
b100000000000000000000000000000000 +
1-
#32
0-
#33
1-
#34
b000000000 #
b00000000000000000 $
b0000000000000000000000000 %
b000000000000000000000000000000000 &
0-
b0000110 /
b00000000000000000000000000000000 2
#35
b000000000 (
b00000000000000000 )
b0000000000000000000000000 *
b000000000000000000000000000000000 +
1-
#36
0-
#37
1-
#38
0-
b0000111 /
#39
1-
#40
0-
#41
1-
#42
0-
b0001000 /
